{
"skeleton": { "hash": "q40CQKlRhMmwJqWbCLi2C/JGh5I", "spine": "3.6.53", "width": 434, "height": 513, "images": "./images/" },
"bones": [
	{ "name": "root" },
	{ "name": "astronave", "parent": "root", "length": 170.94, "rotation": 90, "x": -0.65, "y": 10.89 },
	{ "name": "corpo", "parent": "astronave", "length": 123.68, "rotation": 18.57, "x": 141.41, "y": -38.48 },
	{ "name": "testa", "parent": "corpo", "length": 96.27, "rotation": 1.55, "x": 105.87, "y": 8.81 },
	{ "name": "casco", "parent": "testa", "length": 159.47, "rotation": -22.69, "x": 10.24, "y": 30.56 },
	{ "name": "faccia", "parent": "testa", "x": 50.21, "y": 22.59 },
	{ "name": "luci astronave", "parent": "astronave", "x": -74.28, "y": 172.73 },
	{ "name": "orecchio dx", "parent": "testa", "length": 67.84, "rotation": -163.7, "x": 88.19, "y": -53.28 },
	{ "name": "orecchio sx", "parent": "testa", "length": 68.4, "rotation": 117, "x": 123.38, "y": 16.76 },
	{ "name": "zampa", "parent": "corpo", "length": 70.16, "rotation": 4.73, "x": 74.14, "y": 119.55 }
],
"slots": [
	{ "name": "zampa", "bone": "zampa", "attachment": "zampa" },
	{ "name": "corpo", "bone": "corpo", "attachment": "corpo" },
	{ "name": "testa", "bone": "testa", "attachment": "testa" },
	{ "name": "orecchio dx", "bone": "orecchio dx", "attachment": "orecchio dx" },
	{ "name": "orecchio sx", "bone": "orecchio sx", "attachment": "orecchio sx" },
	{ "name": "faccia", "bone": "faccia", "attachment": "faccia" },
	{ "name": "casco", "bone": "casco", "attachment": "casco" },
	{ "name": "astronave", "bone": "astronave", "attachment": "astronave" },
	{ "name": "luci astronave", "bone": "luci astronave", "attachment": "luci astronave" }
],
"skins": {
	"default": {
		"astronave": {
			"astronave": { "x": 48.11, "y": 0.35, "rotation": -90, "width": 434, "height": 272 }
		},
		"casco": {
			"casco": { "x": 68.44, "y": -7.38, "rotation": -87.43, "width": 236, "height": 236 }
		},
		"corpo": {
			"corpo": { "x": 48.23, "y": 14.22, "rotation": -108.57, "width": 196, "height": 229 }
		},
		"faccia": {
			"faccia": { "x": -4.41, "y": -5.53, "rotation": -110.12, "width": 92, "height": 84 }
		},
		"luci astronave": {
			"luci astronave": { "x": 9.39, "y": 0.12, "rotation": -90, "width": 65, "height": 48 }
		},
		"orecchio dx": {
			"orecchio dx": { "x": 36.31, "y": 1.22, "rotation": 53.58, "width": 82, "height": 97 }
		},
		"orecchio sx": {
			"orecchio sx": { "x": 36.51, "y": -8.54, "rotation": 132.88, "width": 95, "height": 78 }
		},
		"testa": {
			"testa": { "x": 45.89, "y": -1.61, "rotation": -110.12, "width": 145, "height": 145 }
		},
		"zampa": {
			"zampa": { "x": 39.38, "y": -8.35, "rotation": -113.29, "width": 82, "height": 106 }
		}
	}
},
"animations": {
	"Pecora Attacco": {
		"slots": {
			"luci astronave": {
				"attachment": [
					{ "time": 0.1667, "name": null },
					{ "time": 0.3333, "name": "luci astronave" },
					{ "time": 0.5, "name": null },
					{ "time": 0.6667, "name": "luci astronave" },
					{ "time": 0.8333, "name": null },
					{ "time": 1, "name": "luci astronave" }
				]
			},
			"zampa": {
				"attachment": [
					{ "time": 0, "name": "zampa" },
					{ "time": 1, "name": "zampa" }
				]
			}
		},
		"bones": {
			"zampa": {
				"rotate": [
					{ "time": 0, "angle": -50.82 },
					{ "time": 0.1667, "angle": -5.09 },
					{ "time": 0.5, "angle": 109.26 },
					{ "time": 0.8333, "angle": 131.38 },
					{ "time": 0.9667, "angle": -74.25 },
					{ "time": 1, "angle": -50.82 }
				],
				"translate": [
					{ "time": 0, "x": 8.65, "y": -37.54 },
					{ "time": 0.8333, "x": -1.64, "y": -45.71 },
					{ "time": 0.9667, "x": 13.03, "y": -71.76 },
					{ "time": 1, "x": 8.65, "y": -37.54 }
				]
			},
			"luci astronave": {
				"rotate": [
					{ "time": 0, "angle": 0, "curve": "stepped" },
					{ "time": 0.6667, "angle": 0 }
				],
				"translate": [
					{ "time": 0, "x": 0, "y": 0, "curve": "stepped" },
					{ "time": 0.1667, "x": 0, "y": 0 },
					{ "time": 0.3333, "x": 3.02, "y": -348.57, "curve": "stepped" },
					{ "time": 0.5, "x": 3.02, "y": -348.57 },
					{ "time": 0.6667, "x": 0, "y": 0, "curve": "stepped" },
					{ "time": 0.8333, "x": 0, "y": 0 },
					{ "time": 1, "x": 3.02, "y": -348.57 }
				]
			},
			"testa": {
				"rotate": [
					{ "time": 0, "angle": 0 },
					{ "time": 0.5, "angle": -8.18 },
					{ "time": 1, "angle": 0 }
				],
				"translate": [
					{ "time": 0, "x": 0, "y": 0 },
					{ "time": 0.5, "x": 10.37, "y": 0.28 },
					{ "time": 1, "x": 0, "y": 0 }
				]
			},
			"astronave": {
				"rotate": [
					{ "time": 0, "angle": 0, "curve": "stepped" },
					{ "time": 1, "angle": 0 }
				],
				"translate": [
					{ "time": 0, "x": 0, "y": 0 },
					{ "time": 0.5, "x": 0, "y": -20.82 },
					{ "time": 1, "x": 0, "y": 0 }
				]
			}
		}
	},
	"Pecora Idle": {
		"slots": {
			"luci astronave": {
				"attachment": [
					{ "time": 0.1667, "name": null },
					{ "time": 0.3333, "name": "luci astronave" },
					{ "time": 0.5, "name": null },
					{ "time": 0.6667, "name": "luci astronave" },
					{ "time": 0.8333, "name": null },
					{ "time": 1, "name": "luci astronave" }
				]
			},
			"zampa": {
				"attachment": [
					{ "time": 0, "name": null }
				]
			}
		},
		"bones": {
			"astronave": {
				"rotate": [
					{ "time": 0, "angle": 0, "curve": "stepped" },
					{ "time": 1, "angle": 0 }
				],
				"translate": [
					{ "time": 0, "x": 0, "y": 0 },
					{ "time": 0.5, "x": 0, "y": -20.82 },
					{ "time": 1, "x": 0, "y": 0 }
				]
			},
			"testa": {
				"rotate": [
					{ "time": 0, "angle": 0 },
					{ "time": 0.5, "angle": -8.18 },
					{ "time": 1, "angle": 0 }
				],
				"translate": [
					{ "time": 0, "x": 0, "y": 0 },
					{ "time": 0.5, "x": 10.37, "y": 0.28 },
					{ "time": 1, "x": 0, "y": 0 }
				]
			},
			"luci astronave": {
				"rotate": [
					{ "time": 0, "angle": 0, "curve": "stepped" },
					{ "time": 0.6667, "angle": 0 }
				],
				"translate": [
					{ "time": 0, "x": 0, "y": 0, "curve": "stepped" },
					{ "time": 0.1667, "x": 0, "y": 0 },
					{ "time": 0.3333, "x": 3.02, "y": -348.57, "curve": "stepped" },
					{ "time": 0.5, "x": 3.02, "y": -348.57 },
					{ "time": 0.6667, "x": 0, "y": 0, "curve": "stepped" },
					{ "time": 0.8333, "x": 0, "y": 0 },
					{ "time": 1, "x": 3.02, "y": -348.57 }
				]
			}
		}
	}
}
}