%YAML 1.1
%TAG !u! tag:unity3d.com,2011:
--- !u!74 &7400000
AnimationClip:
  m_ObjectHideFlags: 0
  m_CorrespondingSourceObject: {fileID: 0}
  m_PrefabInstance: {fileID: 0}
  m_PrefabAsset: {fileID: 0}
  m_Name: AnimazioneSplashScreen
  serializedVersion: 6
  m_Legacy: 0
  m_Compressed: 0
  m_UseHighQualityCurve: 1
  m_RotationCurves: []
  m_CompressedRotationCurves: []
  m_EulerCurves: []
  m_PositionCurves: []
  m_ScaleCurves: []
  m_FloatCurves: []
  m_PPtrCurves:
  - curve:
    - time: 0
      value: {fileID: 21300000, guid: e1aebd0c0e8234740b2f685db1487ff2, type: 3}
    - time: 0.083333336
      value: {fileID: 21300000, guid: 5df6955d9e3f71b48b601938af1bebac, type: 3}
    - time: 0.16666667
      value: {fileID: 21300000, guid: 6933d0ed54e3e9b4bbed13d614ae0c08, type: 3}
    - time: 0.25
      value: {fileID: 21300000, guid: 21cfffeab0945614ebeab8ab4ff65d9c, type: 3}
    - time: 0.33333334
      value: {fileID: 21300000, guid: c2763cd7b88b08240a2c0c7e8e0153d5, type: 3}
    - time: 0.41666666
      value: {fileID: 21300000, guid: 3c68182676028f546bfb6c02e149fd1a, type: 3}
    - time: 0.5
      value: {fileID: 21300000, guid: 7b98a3610808832499889d0c20d47144, type: 3}
    - time: 0.5833333
      value: {fileID: 21300000, guid: fb543a95de476054f8c40ed3c1c0123c, type: 3}
    - time: 0.6666667
      value: {fileID: 21300000, guid: 72e2ad67d4a315b4a8c9b96b01536d66, type: 3}
    - time: 0.75
      value: {fileID: 21300000, guid: 0f12592e616dd8246841d8c4135bc17f, type: 3}
    - time: 0.8333333
      value: {fileID: 21300000, guid: d355fef36340fc747ac4d6911ce74383, type: 3}
    - time: 0.9166667
      value: {fileID: 21300000, guid: c0f89e7167f16ce4cbf26cbd5605825a, type: 3}
    - time: 1
      value: {fileID: 21300000, guid: 0cea845c46f39d74abd763fde2dfc780, type: 3}
    - time: 1.0833334
      value: {fileID: 21300000, guid: fdd5ef2f5b2605442b7020d2afd0dc8d, type: 3}
    - time: 1.1666666
      value: {fileID: 21300000, guid: d128f15274786e94f994539de9923bcb, type: 3}
    - time: 1.25
      value: {fileID: 21300000, guid: 0342a038a62d55e4abb58b46b9d86daa, type: 3}
    - time: 1.3333334
      value: {fileID: 21300000, guid: 03e1138fee4d24949b501577ff08b2af, type: 3}
    - time: 1.4166666
      value: {fileID: 21300000, guid: 624b7e13a7c0c4e44b11d4d64903edcc, type: 3}
    - time: 1.5
      value: {fileID: 21300000, guid: 6192a4c030365a44a9fe26742943e0dc, type: 3}
    - time: 1.5833334
      value: {fileID: 21300000, guid: 7caa64414c24ce24887f5f4883194a17, type: 3}
    - time: 1.6666666
      value: {fileID: 21300000, guid: cfada8c987c399f42b6d87d93ba7115b, type: 3}
    - time: 1.75
      value: {fileID: 21300000, guid: 105753299d68d9c4b9c13de7dca3b42b, type: 3}
    - time: 1.8333334
      value: {fileID: 21300000, guid: 3d7be1f803cf9ee498b14ac362d85b59, type: 3}
    - time: 1.9166666
      value: {fileID: 21300000, guid: 7cae97f29c1d7e0499bdb62e722c95c9, type: 3}
    - time: 2
      value: {fileID: 21300000, guid: 2b340864c88fadc4a86e7a2bce038a8a, type: 3}
    - time: 2.0833333
      value: {fileID: 21300000, guid: 632e843bbd7e4c4418a778c9e9667121, type: 3}
    - time: 2.1666667
      value: {fileID: 21300000, guid: 02cd657b0e835c64d953c248992dc347, type: 3}
    - time: 2.25
      value: {fileID: 21300000, guid: 3d34ffe67d0f5434eaf772b5815dea46, type: 3}
    - time: 2.3333333
      value: {fileID: 21300000, guid: c6dc9046a91f5af438892ab6ff27b6db, type: 3}
    - time: 2.4166667
      value: {fileID: 21300000, guid: 11307586a4c529041a87511363c71e3b, type: 3}
    - time: 2.5
      value: {fileID: 21300000, guid: 1c7cb80016f209a48bad0630ffef9ef5, type: 3}
    - time: 2.5833333
      value: {fileID: 21300000, guid: a37ec8ad4f073534d9a4b73cfefa73dc, type: 3}
    - time: 2.6666667
      value: {fileID: 21300000, guid: 2eac5e1b345c8c54baa598f5ffa5a74f, type: 3}
    - time: 2.75
      value: {fileID: 21300000, guid: a273dcc5b2ef5684ba2847dc69141f52, type: 3}
    - time: 2.8333333
      value: {fileID: 21300000, guid: 25fa97f3cde37664ab1d2f0c3a7d598a, type: 3}
    - time: 2.9166667
      value: {fileID: 21300000, guid: 7c3ff2ee5f6ac2f45a93418a528eeb4a, type: 3}
    - time: 3
      value: {fileID: 21300000, guid: 5d66ac5bf5d61114e90327ac3831bd11, type: 3}
    - time: 3.0833333
      value: {fileID: 21300000, guid: a7cb372c8a1e69942a6d4fe56580ee11, type: 3}
    - time: 3.1666667
      value: {fileID: 21300000, guid: 157cfcc0906aee6488dace5d9cba5e7a, type: 3}
    - time: 3.25
      value: {fileID: 21300000, guid: 27b7bdd08dc522f45a8b94ca6789c2b3, type: 3}
    - time: 3.3333333
      value: {fileID: 21300000, guid: d815654a26c7a8d48a693378aba0b0e3, type: 3}
    - time: 3.4166667
      value: {fileID: 21300000, guid: 8eb26dc0030be924988bde5e4928de8b, type: 3}
    - time: 3.5
      value: {fileID: 21300000, guid: 25e86a42617a6ff43a1f1ccc44a0b80d, type: 3}
    - time: 3.5833333
      value: {fileID: 21300000, guid: 4d6d15c540393944eab3025c677cd778, type: 3}
    - time: 3.6666667
      value: {fileID: 21300000, guid: c505cb4d89eb6124a97b31bd1307da53, type: 3}
    - time: 3.75
      value: {fileID: 21300000, guid: 107a56a0d00ecdf4d85b3e8e862d98a7, type: 3}
    - time: 3.8333333
      value: {fileID: 21300000, guid: f9517ec5e1716ce46a2ed3b2d5630717, type: 3}
    - time: 3.9166667
      value: {fileID: 21300000, guid: 36e52c0155b7f3b4baf128432fadb0fd, type: 3}
    - time: 4
      value: {fileID: 21300000, guid: 9ee99f9373ff8924ba3435913420ee6e, type: 3}
    - time: 4.0833335
      value: {fileID: 21300000, guid: 4ac3a674693e438488a71c48960062d8, type: 3}
    - time: 4.1666665
      value: {fileID: 21300000, guid: 8213f2a7ac7a72445934cfdde05bb3f2, type: 3}
    - time: 4.25
      value: {fileID: 21300000, guid: 022b7d35b8ded544ebb5822c4d192210, type: 3}
    - time: 4.3333335
      value: {fileID: 21300000, guid: c0e93d7f88ff34641898625293cd2c72, type: 3}
    - time: 4.4166665
      value: {fileID: 21300000, guid: cae09e117dad94f4693f39e559a4bdf7, type: 3}
    - time: 4.5
      value: {fileID: 21300000, guid: a1aab564551def640aee22d1476661fc, type: 3}
    - time: 4.5833335
      value: {fileID: 21300000, guid: cf6e71553ab891f4f957afe557deca65, type: 3}
    - time: 4.6666665
      value: {fileID: 21300000, guid: eae5a766e85cda449bd1a9cd6e289cc8, type: 3}
    - time: 4.75
      value: {fileID: 21300000, guid: 7253687354622ca4e89526bf31529af8, type: 3}
    - time: 4.8333335
      value: {fileID: 21300000, guid: f46707bc6baddba409ec8b7fa96c3de3, type: 3}
    - time: 4.9166665
      value: {fileID: 21300000, guid: 80ff5d6d5afa102488d3943b51a3295b, type: 3}
    - time: 5
      value: {fileID: 21300000, guid: 3044e418e4de1d34698dbd658386c686, type: 3}
    - time: 5.0833335
      value: {fileID: 21300000, guid: 555db3e37ceb96247b5279800009c2af, type: 3}
    - time: 5.1666665
      value: {fileID: 21300000, guid: 824de3b32fd31734387f151238417d39, type: 3}
    - time: 5.25
      value: {fileID: 21300000, guid: 902d834b67fc9e949995755c9f63eca0, type: 3}
    - time: 5.3333335
      value: {fileID: 21300000, guid: 420c13c8457587b489ae539d5746f6be, type: 3}
    - time: 5.4166665
      value: {fileID: 21300000, guid: f9333302bbebb944ba0d5e64fbf86893, type: 3}
    - time: 5.5
      value: {fileID: 21300000, guid: 643d667bcf94f4a44a1f4118d5f9eddb, type: 3}
    - time: 5.5833335
      value: {fileID: 21300000, guid: 1cbc03701be91044d99f5814eec8abc7, type: 3}
    - time: 5.6666665
      value: {fileID: 21300000, guid: 30a25316dee7126459fc37a39fdaebf6, type: 3}
    - time: 5.75
      value: {fileID: 21300000, guid: b56227715aea31541814598344025964, type: 3}
    - time: 5.8333335
      value: {fileID: 21300000, guid: 1a76fc81d7703814c98245ac6b7c6647, type: 3}
    - time: 5.9166665
      value: {fileID: 21300000, guid: c178c3e0aeba4c04a8f14a9df1a0dbb2, type: 3}
    - time: 6
      value: {fileID: 21300000, guid: c62e6339161d9354da41ef63febddf5c, type: 3}
    - time: 6.0833335
      value: {fileID: 21300000, guid: 4597a9c544ef5c74a9044d8b4eafa9b4, type: 3}
    - time: 6.1666665
      value: {fileID: 21300000, guid: 06f3c3c2b9faea242b66968aa03daa8d, type: 3}
    - time: 6.25
      value: {fileID: 21300000, guid: 39da5e6a08ea30842acd63cfbb7230b9, type: 3}
    - time: 6.3333335
      value: {fileID: 21300000, guid: 6af7b4c237293894dab69ff6c25c8371, type: 3}
    - time: 6.4166665
      value: {fileID: 21300000, guid: b86c6cf7984d71d42a2c40dd53b6818d, type: 3}
    - time: 6.5
      value: {fileID: 21300000, guid: 9a9041e79eb67b240a0154070818fcc8, type: 3}
    - time: 6.5833335
      value: {fileID: 21300000, guid: 400a14e9013baf6489616cf51247d377, type: 3}
    - time: 6.6666665
      value: {fileID: 21300000, guid: e9a77f3bf9b9f784081cf93583bb395d, type: 3}
    - time: 6.75
      value: {fileID: 21300000, guid: fd807844e4a558549b8b26da209257a2, type: 3}
    - time: 6.8333335
      value: {fileID: 21300000, guid: 5e56c75f407c5714b8d4280b5228871b, type: 3}
    - time: 6.9166665
      value: {fileID: 21300000, guid: 3feb947d263720f44b0594ce91497478, type: 3}
    - time: 7
      value: {fileID: 21300000, guid: 0d713e202080b224386e8e64ce09101d, type: 3}
    - time: 7.0833335
      value: {fileID: 21300000, guid: bc1047426bd7aef4799a4a2a338fdb4a, type: 3}
    - time: 7.1666665
      value: {fileID: 21300000, guid: f439ed25913149a439a3ed6781070802, type: 3}
    - time: 7.25
      value: {fileID: 21300000, guid: e052b01928ab82c46b01c966ebba3beb, type: 3}
    - time: 7.3333335
      value: {fileID: 21300000, guid: 289bd96e76fca024cb865deee36588dd, type: 3}
    - time: 7.4166665
      value: {fileID: 21300000, guid: 4dd2e9db9379b6c438d663f664cf0cea, type: 3}
    - time: 7.5
      value: {fileID: 21300000, guid: 76110a0002803a44e998c4beec49dfe5, type: 3}
    - time: 7.5833335
      value: {fileID: 21300000, guid: 467733b608ca7cd4b804d2414fdd0528, type: 3}
    - time: 7.6666665
      value: {fileID: 21300000, guid: 6867f968112616a41a8b8b6bd1c9685d, type: 3}
    - time: 7.75
      value: {fileID: 21300000, guid: 51b71fc20107c4e48b50ddf8c17c5478, type: 3}
    - time: 7.8333335
      value: {fileID: 21300000, guid: 756a378a39237964cb59229782c68b39, type: 3}
    - time: 7.9166665
      value: {fileID: 21300000, guid: 72ac5dce5689013439df430337c4b3d8, type: 3}
    - time: 8
      value: {fileID: 21300000, guid: 8aae0f690508b3d40bd3e044efb11ab7, type: 3}
    - time: 8.083333
      value: {fileID: 21300000, guid: 251e6820aaa77464e937e1f1b97bc890, type: 3}
    - time: 8.166667
      value: {fileID: 21300000, guid: 8f60031ded03bd742a7dd8a095f16db9, type: 3}
    - time: 8.25
      value: {fileID: 21300000, guid: 1635251d5ff62d0479d4a8b16adb7874, type: 3}
    - time: 8.333333
      value: {fileID: 21300000, guid: d458bb42d31115c44aaa9afa558677bc, type: 3}
    - time: 8.416667
      value: {fileID: 21300000, guid: e79a0d97ed57433419082fd9ea0aafa2, type: 3}
    - time: 8.5
      value: {fileID: 21300000, guid: bcc444fb93f7aa941a4780a920316d45, type: 3}
    - time: 8.583333
      value: {fileID: 21300000, guid: 7287679cd8e793546a31a8d56cc876b1, type: 3}
    - time: 8.666667
      value: {fileID: 21300000, guid: d6b59aa13ff56a94fab1438deea634aa, type: 3}
    - time: 8.75
      value: {fileID: 21300000, guid: 2f251b176af1baf419b6de8dcbc6a50d, type: 3}
    - time: 8.833333
      value: {fileID: 21300000, guid: 8440874023c9eaf4681954577d54c8fe, type: 3}
    - time: 8.916667
      value: {fileID: 21300000, guid: 81d12750f0ca6df4eb817ceba9021d77, type: 3}
    - time: 9
      value: {fileID: 21300000, guid: 8ac6305d8a224634395f15c7b67885c6, type: 3}
    - time: 9.083333
      value: {fileID: 21300000, guid: 788f84d6ff5d5db4c9f526b08b8ca933, type: 3}
    - time: 9.166667
      value: {fileID: 21300000, guid: 45760720c978a8541b27fa074842d31c, type: 3}
    - time: 9.25
      value: {fileID: 21300000, guid: 1ac5bbc1fffd7fd4e831513764086da5, type: 3}
    - time: 9.333333
      value: {fileID: 21300000, guid: 481db35885ff48d47b8022aa35529157, type: 3}
    - time: 9.416667
      value: {fileID: 21300000, guid: 99db0222ce207d94c8851b278b2d7343, type: 3}
    - time: 9.5
      value: {fileID: 21300000, guid: 13efde934bac6b74384936f0107a87c4, type: 3}
    - time: 9.583333
      value: {fileID: 21300000, guid: 1e72c4030b2dbb14cb4fac65ca4f432b, type: 3}
    - time: 9.666667
      value: {fileID: 21300000, guid: 5dc1d7b5e3e080246942cb4afde5bf01, type: 3}
    - time: 9.75
      value: {fileID: 21300000, guid: 9df33cd3635e0a34786a34443aeb5996, type: 3}
    - time: 9.833333
      value: {fileID: 21300000, guid: 2faa159da51567f41b35f34a3856c52c, type: 3}
    - time: 9.916667
      value: {fileID: 21300000, guid: 9d19c2d690e8c0541b87b64b1913c19a, type: 3}
    - time: 10
      value: {fileID: 21300000, guid: 1e1be0e7a63ab784b826746ee268ed4a, type: 3}
    - time: 10.083333
      value: {fileID: 21300000, guid: 2b4f4e703b88b874c8bfc9d99f3a462e, type: 3}
    - time: 10.166667
      value: {fileID: 21300000, guid: 8b82e5a6d73db044b8f76be389ee7024, type: 3}
    - time: 10.25
      value: {fileID: 21300000, guid: e1d6a6c125546504c8973ac517bb59cc, type: 3}
    - time: 10.333333
      value: {fileID: 21300000, guid: 5d3d221d1d6873d4e97029945bde6e24, type: 3}
    - time: 10.416667
      value: {fileID: 21300000, guid: c306302160af74246946a0967923c3ef, type: 3}
    - time: 10.5
      value: {fileID: 21300000, guid: 0bdd1675544627a4a9b6cb2ec90ca046, type: 3}
    - time: 10.583333
      value: {fileID: 21300000, guid: f3d125db7efa0f244b459480b5d62476, type: 3}
    - time: 10.666667
      value: {fileID: 21300000, guid: ef1b59fc51318c44ca829fb1f6a14ecd, type: 3}
    - time: 10.75
      value: {fileID: 21300000, guid: dce0dc3a9617e264c9d07ecac58f0a06, type: 3}
    - time: 10.833333
      value: {fileID: 21300000, guid: c57524eb3908a1041ac93b86fbc20699, type: 3}
    - time: 10.916667
      value: {fileID: 21300000, guid: f39456b3f88a28d409c75ae6f4c9e6fa, type: 3}
    - time: 11
      value: {fileID: 21300000, guid: 2bff77c840f01be42a758594a2561369, type: 3}
    - time: 11.083333
      value: {fileID: 21300000, guid: f52f55a30ab88f745985774eed9f26aa, type: 3}
    - time: 11.166667
      value: {fileID: 21300000, guid: 44c0d00d8def3644698140c0ce6197d6, type: 3}
    - time: 11.25
      value: {fileID: 21300000, guid: ef77de0a7157d1d4e8282217dce490a7, type: 3}
    - time: 11.333333
      value: {fileID: 21300000, guid: ceee2090ffdf1374daac9eae01f3067c, type: 3}
    - time: 11.416667
      value: {fileID: 21300000, guid: 24b54f47f07813f4b896294fc2ff588d, type: 3}
    - time: 11.5
      value: {fileID: 21300000, guid: 65e525b5fe5dfc04a8905b39fd5face1, type: 3}
    - time: 11.583333
      value: {fileID: 21300000, guid: efd7f326bc34ad844925902a19f9b72a, type: 3}
    - time: 11.666667
      value: {fileID: 21300000, guid: 72323d1148139b14f923d83d62015588, type: 3}
    - time: 11.75
      value: {fileID: 21300000, guid: d26a04fb5cf457e42a783996ad518987, type: 3}
    - time: 11.833333
      value: {fileID: 21300000, guid: b63c3e6f3b70be14bb60b3c184c3ce91, type: 3}
    - time: 11.916667
      value: {fileID: 21300000, guid: 4ebd2cade65d2c144b89e536e95ca4cb, type: 3}
    - time: 12
      value: {fileID: 21300000, guid: 6a3695c0278a04643a5a9a0846872f28, type: 3}
    - time: 12.083333
      value: {fileID: 21300000, guid: 1fa32c417701cab44b890ae672f47958, type: 3}
    - time: 12.166667
      value: {fileID: 21300000, guid: f47ae0a9b3a33724ca931e99750c7c69, type: 3}
    - time: 12.25
      value: {fileID: 21300000, guid: a3cc97da14d61e74fb61afaafac16cf6, type: 3}
    - time: 12.333333
      value: {fileID: 21300000, guid: 8945085f738750742b23466a182269b1, type: 3}
    - time: 12.416667
      value: {fileID: 21300000, guid: 60127c7b4896dfa409a7b9f3591ffe82, type: 3}
    - time: 12.5
      value: {fileID: 21300000, guid: 5e68b42a9b0a7c649b73891827225a77, type: 3}
    - time: 12.583333
      value: {fileID: 21300000, guid: 955f82a7e87ada8488f2b267f3046416, type: 3}
    - time: 12.666667
      value: {fileID: 21300000, guid: e9982394a2eb40d4f8860ed02f2745d8, type: 3}
    - time: 12.75
      value: {fileID: 21300000, guid: 6cf141acac1f57349a919ff42a024b18, type: 3}
    - time: 12.833333
      value: {fileID: 21300000, guid: d3e013dcd56f00241bd697ab3711f341, type: 3}
    - time: 12.916667
      value: {fileID: 21300000, guid: 4cac3ec0c120e314899779373c91ccbf, type: 3}
    - time: 13
      value: {fileID: 21300000, guid: d87176f20f5ff0747a28d221c3f43ad7, type: 3}
    - time: 13.083333
      value: {fileID: 21300000, guid: 779ab5aa3789bd84f9a860edec113a40, type: 3}
    - time: 13.166667
      value: {fileID: 21300000, guid: 0c28ce46af2db384c9062b9a8e8b412d, type: 3}
    - time: 13.25
      value: {fileID: 21300000, guid: d0e0270545537eb428644a0a136d234d, type: 3}
    - time: 13.333333
      value: {fileID: 21300000, guid: 97c020ea02eee3846b10e12d107fb35c, type: 3}
    - time: 13.416667
      value: {fileID: 21300000, guid: ac825bab681da17478f3bc8052e08c04, type: 3}
    - time: 13.5
      value: {fileID: 21300000, guid: 9d6f33c6fec1ba249b2ea48eabfcc086, type: 3}
    - time: 13.583333
      value: {fileID: 21300000, guid: a1cf27baff62bab4ca8e556d68716e09, type: 3}
    - time: 13.666667
      value: {fileID: 21300000, guid: 67d752cb45fccd74198f31481c860f9f, type: 3}
    - time: 13.75
      value: {fileID: 21300000, guid: ce191083a1269e241952543d7fd1ae26, type: 3}
    - time: 13.833333
      value: {fileID: 21300000, guid: 478095f606494e541b615b7daab0ba6e, type: 3}
    - time: 13.916667
      value: {fileID: 21300000, guid: c4a83e05e366e0840883dfe7dd01fd64, type: 3}
    - time: 14
      value: {fileID: 21300000, guid: 76d3fa3f8c0ca0340b4334882c815d73, type: 3}
    - time: 14.083333
      value: {fileID: 21300000, guid: 1c24582c1517c304fb1c0b22d5703960, type: 3}
    - time: 14.166667
      value: {fileID: 21300000, guid: a149201875c65ef46990cd42a296b61c, type: 3}
    - time: 14.25
      value: {fileID: 21300000, guid: f4c75e09bc715a94ab7682d36225a212, type: 3}
    - time: 14.333333
      value: {fileID: 21300000, guid: dd623f0f79683644eb82df3faa2bc4ad, type: 3}
    - time: 14.416667
      value: {fileID: 21300000, guid: 9d2d194e58b021449bcddabec084e15c, type: 3}
    - time: 14.5
      value: {fileID: 21300000, guid: 636d3311d99fe9041a38dbaf377e397b, type: 3}
    - time: 14.583333
      value: {fileID: 21300000, guid: 49fd5ae859784ec41a2fabb00077f5f8, type: 3}
    - time: 14.666667
      value: {fileID: 21300000, guid: b10fee54b62fe7a42905fe69d934fd2a, type: 3}
    - time: 14.75
      value: {fileID: 21300000, guid: dd77d21bcc52f9342a44d646ceeb57dc, type: 3}
    - time: 14.833333
      value: {fileID: 21300000, guid: ad47b8f08a7952e4f8ccf532af742cf1, type: 3}
    - time: 14.916667
      value: {fileID: 21300000, guid: 8962277e8770ee64188bf2def242f8c3, type: 3}
    - time: 15
      value: {fileID: 21300000, guid: 0806af230bf6a9d4eb27d6a9645bc127, type: 3}
    - time: 15.083333
      value: {fileID: 21300000, guid: 0ec0f865c864b404caf7191ba2b8f232, type: 3}
    - time: 15.166667
      value: {fileID: 21300000, guid: 624a3e5e9974f2b44b2d4120850e34ab, type: 3}
    - time: 15.25
      value: {fileID: 21300000, guid: cc1acd407e609e34db1a233e71556bf0, type: 3}
    - time: 15.333333
      value: {fileID: 21300000, guid: 2f39490f7943d474f8e4c58126de31d0, type: 3}
    - time: 15.416667
      value: {fileID: 21300000, guid: d4cfc1c19b520d943a50672428cb5efc, type: 3}
    - time: 15.5
      value: {fileID: 21300000, guid: ba06522707fc96344a4b11b18f5cc838, type: 3}
    - time: 15.583333
      value: {fileID: 21300000, guid: cf1dd65c01d99764daa005980abc2ae7, type: 3}
    - time: 15.666667
      value: {fileID: 21300000, guid: 36558f6f20ab4754eb9fc025d77c16f1, type: 3}
    - time: 15.75
      value: {fileID: 21300000, guid: 3e33e4ac9df2a834f8169c7ad6dd9e3c, type: 3}
    - time: 15.833333
      value: {fileID: 21300000, guid: 024a1812961ee374dbdacb3b04dbc956, type: 3}
    - time: 15.916667
      value: {fileID: 21300000, guid: 9808eb4b064f866429eea3414af7f87f, type: 3}
    attribute: m_Sprite
    path: 
    classID: 212
    script: {fileID: 0}
  m_SampleRate: 12
  m_WrapMode: 0
  m_Bounds:
    m_Center: {x: 0, y: 0, z: 0}
    m_Extent: {x: 0, y: 0, z: 0}
  m_ClipBindingConstant:
    genericBindings:
    - serializedVersion: 2
      path: 0
      attribute: 0
      script: {fileID: 0}
      typeID: 212
      customType: 23
      isPPtrCurve: 1
    pptrCurveMapping:
    - {fileID: 21300000, guid: e1aebd0c0e8234740b2f685db1487ff2, type: 3}
    - {fileID: 21300000, guid: 5df6955d9e3f71b48b601938af1bebac, type: 3}
    - {fileID: 21300000, guid: 6933d0ed54e3e9b4bbed13d614ae0c08, type: 3}
    - {fileID: 21300000, guid: 21cfffeab0945614ebeab8ab4ff65d9c, type: 3}
    - {fileID: 21300000, guid: c2763cd7b88b08240a2c0c7e8e0153d5, type: 3}
    - {fileID: 21300000, guid: 3c68182676028f546bfb6c02e149fd1a, type: 3}
    - {fileID: 21300000, guid: 7b98a3610808832499889d0c20d47144, type: 3}
    - {fileID: 21300000, guid: fb543a95de476054f8c40ed3c1c0123c, type: 3}
    - {fileID: 21300000, guid: 72e2ad67d4a315b4a8c9b96b01536d66, type: 3}
    - {fileID: 21300000, guid: 0f12592e616dd8246841d8c4135bc17f, type: 3}
    - {fileID: 21300000, guid: d355fef36340fc747ac4d6911ce74383, type: 3}
    - {fileID: 21300000, guid: c0f89e7167f16ce4cbf26cbd5605825a, type: 3}
    - {fileID: 21300000, guid: 0cea845c46f39d74abd763fde2dfc780, type: 3}
    - {fileID: 21300000, guid: fdd5ef2f5b2605442b7020d2afd0dc8d, type: 3}
    - {fileID: 21300000, guid: d128f15274786e94f994539de9923bcb, type: 3}
    - {fileID: 21300000, guid: 0342a038a62d55e4abb58b46b9d86daa, type: 3}
    - {fileID: 21300000, guid: 03e1138fee4d24949b501577ff08b2af, type: 3}
    - {fileID: 21300000, guid: 624b7e13a7c0c4e44b11d4d64903edcc, type: 3}
    - {fileID: 21300000, guid: 6192a4c030365a44a9fe26742943e0dc, type: 3}
    - {fileID: 21300000, guid: 7caa64414c24ce24887f5f4883194a17, type: 3}
    - {fileID: 21300000, guid: cfada8c987c399f42b6d87d93ba7115b, type: 3}
    - {fileID: 21300000, guid: 105753299d68d9c4b9c13de7dca3b42b, type: 3}
    - {fileID: 21300000, guid: 3d7be1f803cf9ee498b14ac362d85b59, type: 3}
    - {fileID: 21300000, guid: 7cae97f29c1d7e0499bdb62e722c95c9, type: 3}
    - {fileID: 21300000, guid: 2b340864c88fadc4a86e7a2bce038a8a, type: 3}
    - {fileID: 21300000, guid: 632e843bbd7e4c4418a778c9e9667121, type: 3}
    - {fileID: 21300000, guid: 02cd657b0e835c64d953c248992dc347, type: 3}
    - {fileID: 21300000, guid: 3d34ffe67d0f5434eaf772b5815dea46, type: 3}
    - {fileID: 21300000, guid: c6dc9046a91f5af438892ab6ff27b6db, type: 3}
    - {fileID: 21300000, guid: 11307586a4c529041a87511363c71e3b, type: 3}
    - {fileID: 21300000, guid: 1c7cb80016f209a48bad0630ffef9ef5, type: 3}
    - {fileID: 21300000, guid: a37ec8ad4f073534d9a4b73cfefa73dc, type: 3}
    - {fileID: 21300000, guid: 2eac5e1b345c8c54baa598f5ffa5a74f, type: 3}
    - {fileID: 21300000, guid: a273dcc5b2ef5684ba2847dc69141f52, type: 3}
    - {fileID: 21300000, guid: 25fa97f3cde37664ab1d2f0c3a7d598a, type: 3}
    - {fileID: 21300000, guid: 7c3ff2ee5f6ac2f45a93418a528eeb4a, type: 3}
    - {fileID: 21300000, guid: 5d66ac5bf5d61114e90327ac3831bd11, type: 3}
    - {fileID: 21300000, guid: a7cb372c8a1e69942a6d4fe56580ee11, type: 3}
    - {fileID: 21300000, guid: 157cfcc0906aee6488dace5d9cba5e7a, type: 3}
    - {fileID: 21300000, guid: 27b7bdd08dc522f45a8b94ca6789c2b3, type: 3}
    - {fileID: 21300000, guid: d815654a26c7a8d48a693378aba0b0e3, type: 3}
    - {fileID: 21300000, guid: 8eb26dc0030be924988bde5e4928de8b, type: 3}
    - {fileID: 21300000, guid: 25e86a42617a6ff43a1f1ccc44a0b80d, type: 3}
    - {fileID: 21300000, guid: 4d6d15c540393944eab3025c677cd778, type: 3}
    - {fileID: 21300000, guid: c505cb4d89eb6124a97b31bd1307da53, type: 3}
    - {fileID: 21300000, guid: 107a56a0d00ecdf4d85b3e8e862d98a7, type: 3}
    - {fileID: 21300000, guid: f9517ec5e1716ce46a2ed3b2d5630717, type: 3}
    - {fileID: 21300000, guid: 36e52c0155b7f3b4baf128432fadb0fd, type: 3}
    - {fileID: 21300000, guid: 9ee99f9373ff8924ba3435913420ee6e, type: 3}
    - {fileID: 21300000, guid: 4ac3a674693e438488a71c48960062d8, type: 3}
    - {fileID: 21300000, guid: 8213f2a7ac7a72445934cfdde05bb3f2, type: 3}
    - {fileID: 21300000, guid: 022b7d35b8ded544ebb5822c4d192210, type: 3}
    - {fileID: 21300000, guid: c0e93d7f88ff34641898625293cd2c72, type: 3}
    - {fileID: 21300000, guid: cae09e117dad94f4693f39e559a4bdf7, type: 3}
    - {fileID: 21300000, guid: a1aab564551def640aee22d1476661fc, type: 3}
    - {fileID: 21300000, guid: cf6e71553ab891f4f957afe557deca65, type: 3}
    - {fileID: 21300000, guid: eae5a766e85cda449bd1a9cd6e289cc8, type: 3}
    - {fileID: 21300000, guid: 7253687354622ca4e89526bf31529af8, type: 3}
    - {fileID: 21300000, guid: f46707bc6baddba409ec8b7fa96c3de3, type: 3}
    - {fileID: 21300000, guid: 80ff5d6d5afa102488d3943b51a3295b, type: 3}
    - {fileID: 21300000, guid: 3044e418e4de1d34698dbd658386c686, type: 3}
    - {fileID: 21300000, guid: 555db3e37ceb96247b5279800009c2af, type: 3}
    - {fileID: 21300000, guid: 824de3b32fd31734387f151238417d39, type: 3}
    - {fileID: 21300000, guid: 902d834b67fc9e949995755c9f63eca0, type: 3}
    - {fileID: 21300000, guid: 420c13c8457587b489ae539d5746f6be, type: 3}
    - {fileID: 21300000, guid: f9333302bbebb944ba0d5e64fbf86893, type: 3}
    - {fileID: 21300000, guid: 643d667bcf94f4a44a1f4118d5f9eddb, type: 3}
    - {fileID: 21300000, guid: 1cbc03701be91044d99f5814eec8abc7, type: 3}
    - {fileID: 21300000, guid: 30a25316dee7126459fc37a39fdaebf6, type: 3}
    - {fileID: 21300000, guid: b56227715aea31541814598344025964, type: 3}
    - {fileID: 21300000, guid: 1a76fc81d7703814c98245ac6b7c6647, type: 3}
    - {fileID: 21300000, guid: c178c3e0aeba4c04a8f14a9df1a0dbb2, type: 3}
    - {fileID: 21300000, guid: c62e6339161d9354da41ef63febddf5c, type: 3}
    - {fileID: 21300000, guid: 4597a9c544ef5c74a9044d8b4eafa9b4, type: 3}
    - {fileID: 21300000, guid: 06f3c3c2b9faea242b66968aa03daa8d, type: 3}
    - {fileID: 21300000, guid: 39da5e6a08ea30842acd63cfbb7230b9, type: 3}
    - {fileID: 21300000, guid: 6af7b4c237293894dab69ff6c25c8371, type: 3}
    - {fileID: 21300000, guid: b86c6cf7984d71d42a2c40dd53b6818d, type: 3}
    - {fileID: 21300000, guid: 9a9041e79eb67b240a0154070818fcc8, type: 3}
    - {fileID: 21300000, guid: 400a14e9013baf6489616cf51247d377, type: 3}
    - {fileID: 21300000, guid: e9a77f3bf9b9f784081cf93583bb395d, type: 3}
    - {fileID: 21300000, guid: fd807844e4a558549b8b26da209257a2, type: 3}
    - {fileID: 21300000, guid: 5e56c75f407c5714b8d4280b5228871b, type: 3}
    - {fileID: 21300000, guid: 3feb947d263720f44b0594ce91497478, type: 3}
    - {fileID: 21300000, guid: 0d713e202080b224386e8e64ce09101d, type: 3}
    - {fileID: 21300000, guid: bc1047426bd7aef4799a4a2a338fdb4a, type: 3}
    - {fileID: 21300000, guid: f439ed25913149a439a3ed6781070802, type: 3}
    - {fileID: 21300000, guid: e052b01928ab82c46b01c966ebba3beb, type: 3}
    - {fileID: 21300000, guid: 289bd96e76fca024cb865deee36588dd, type: 3}
    - {fileID: 21300000, guid: 4dd2e9db9379b6c438d663f664cf0cea, type: 3}
    - {fileID: 21300000, guid: 76110a0002803a44e998c4beec49dfe5, type: 3}
    - {fileID: 21300000, guid: 467733b608ca7cd4b804d2414fdd0528, type: 3}
    - {fileID: 21300000, guid: 6867f968112616a41a8b8b6bd1c9685d, type: 3}
    - {fileID: 21300000, guid: 51b71fc20107c4e48b50ddf8c17c5478, type: 3}
    - {fileID: 21300000, guid: 756a378a39237964cb59229782c68b39, type: 3}
    - {fileID: 21300000, guid: 72ac5dce5689013439df430337c4b3d8, type: 3}
    - {fileID: 21300000, guid: 8aae0f690508b3d40bd3e044efb11ab7, type: 3}
    - {fileID: 21300000, guid: 251e6820aaa77464e937e1f1b97bc890, type: 3}
    - {fileID: 21300000, guid: 8f60031ded03bd742a7dd8a095f16db9, type: 3}
    - {fileID: 21300000, guid: 1635251d5ff62d0479d4a8b16adb7874, type: 3}
    - {fileID: 21300000, guid: d458bb42d31115c44aaa9afa558677bc, type: 3}
    - {fileID: 21300000, guid: e79a0d97ed57433419082fd9ea0aafa2, type: 3}
    - {fileID: 21300000, guid: bcc444fb93f7aa941a4780a920316d45, type: 3}
    - {fileID: 21300000, guid: 7287679cd8e793546a31a8d56cc876b1, type: 3}
    - {fileID: 21300000, guid: d6b59aa13ff56a94fab1438deea634aa, type: 3}
    - {fileID: 21300000, guid: 2f251b176af1baf419b6de8dcbc6a50d, type: 3}
    - {fileID: 21300000, guid: 8440874023c9eaf4681954577d54c8fe, type: 3}
    - {fileID: 21300000, guid: 81d12750f0ca6df4eb817ceba9021d77, type: 3}
    - {fileID: 21300000, guid: 8ac6305d8a224634395f15c7b67885c6, type: 3}
    - {fileID: 21300000, guid: 788f84d6ff5d5db4c9f526b08b8ca933, type: 3}
    - {fileID: 21300000, guid: 45760720c978a8541b27fa074842d31c, type: 3}
    - {fileID: 21300000, guid: 1ac5bbc1fffd7fd4e831513764086da5, type: 3}
    - {fileID: 21300000, guid: 481db35885ff48d47b8022aa35529157, type: 3}
    - {fileID: 21300000, guid: 99db0222ce207d94c8851b278b2d7343, type: 3}
    - {fileID: 21300000, guid: 13efde934bac6b74384936f0107a87c4, type: 3}
    - {fileID: 21300000, guid: 1e72c4030b2dbb14cb4fac65ca4f432b, type: 3}
    - {fileID: 21300000, guid: 5dc1d7b5e3e080246942cb4afde5bf01, type: 3}
    - {fileID: 21300000, guid: 9df33cd3635e0a34786a34443aeb5996, type: 3}
    - {fileID: 21300000, guid: 2faa159da51567f41b35f34a3856c52c, type: 3}
    - {fileID: 21300000, guid: 9d19c2d690e8c0541b87b64b1913c19a, type: 3}
    - {fileID: 21300000, guid: 1e1be0e7a63ab784b826746ee268ed4a, type: 3}
    - {fileID: 21300000, guid: 2b4f4e703b88b874c8bfc9d99f3a462e, type: 3}
    - {fileID: 21300000, guid: 8b82e5a6d73db044b8f76be389ee7024, type: 3}
    - {fileID: 21300000, guid: e1d6a6c125546504c8973ac517bb59cc, type: 3}
    - {fileID: 21300000, guid: 5d3d221d1d6873d4e97029945bde6e24, type: 3}
    - {fileID: 21300000, guid: c306302160af74246946a0967923c3ef, type: 3}
    - {fileID: 21300000, guid: 0bdd1675544627a4a9b6cb2ec90ca046, type: 3}
    - {fileID: 21300000, guid: f3d125db7efa0f244b459480b5d62476, type: 3}
    - {fileID: 21300000, guid: ef1b59fc51318c44ca829fb1f6a14ecd, type: 3}
    - {fileID: 21300000, guid: dce0dc3a9617e264c9d07ecac58f0a06, type: 3}
    - {fileID: 21300000, guid: c57524eb3908a1041ac93b86fbc20699, type: 3}
    - {fileID: 21300000, guid: f39456b3f88a28d409c75ae6f4c9e6fa, type: 3}
    - {fileID: 21300000, guid: 2bff77c840f01be42a758594a2561369, type: 3}
    - {fileID: 21300000, guid: f52f55a30ab88f745985774eed9f26aa, type: 3}
    - {fileID: 21300000, guid: 44c0d00d8def3644698140c0ce6197d6, type: 3}
    - {fileID: 21300000, guid: ef77de0a7157d1d4e8282217dce490a7, type: 3}
    - {fileID: 21300000, guid: ceee2090ffdf1374daac9eae01f3067c, type: 3}
    - {fileID: 21300000, guid: 24b54f47f07813f4b896294fc2ff588d, type: 3}
    - {fileID: 21300000, guid: 65e525b5fe5dfc04a8905b39fd5face1, type: 3}
    - {fileID: 21300000, guid: efd7f326bc34ad844925902a19f9b72a, type: 3}
    - {fileID: 21300000, guid: 72323d1148139b14f923d83d62015588, type: 3}
    - {fileID: 21300000, guid: d26a04fb5cf457e42a783996ad518987, type: 3}
    - {fileID: 21300000, guid: b63c3e6f3b70be14bb60b3c184c3ce91, type: 3}
    - {fileID: 21300000, guid: 4ebd2cade65d2c144b89e536e95ca4cb, type: 3}
    - {fileID: 21300000, guid: 6a3695c0278a04643a5a9a0846872f28, type: 3}
    - {fileID: 21300000, guid: 1fa32c417701cab44b890ae672f47958, type: 3}
    - {fileID: 21300000, guid: f47ae0a9b3a33724ca931e99750c7c69, type: 3}
    - {fileID: 21300000, guid: a3cc97da14d61e74fb61afaafac16cf6, type: 3}
    - {fileID: 21300000, guid: 8945085f738750742b23466a182269b1, type: 3}
    - {fileID: 21300000, guid: 60127c7b4896dfa409a7b9f3591ffe82, type: 3}
    - {fileID: 21300000, guid: 5e68b42a9b0a7c649b73891827225a77, type: 3}
    - {fileID: 21300000, guid: 955f82a7e87ada8488f2b267f3046416, type: 3}
    - {fileID: 21300000, guid: e9982394a2eb40d4f8860ed02f2745d8, type: 3}
    - {fileID: 21300000, guid: 6cf141acac1f57349a919ff42a024b18, type: 3}
    - {fileID: 21300000, guid: d3e013dcd56f00241bd697ab3711f341, type: 3}
    - {fileID: 21300000, guid: 4cac3ec0c120e314899779373c91ccbf, type: 3}
    - {fileID: 21300000, guid: d87176f20f5ff0747a28d221c3f43ad7, type: 3}
    - {fileID: 21300000, guid: 779ab5aa3789bd84f9a860edec113a40, type: 3}
    - {fileID: 21300000, guid: 0c28ce46af2db384c9062b9a8e8b412d, type: 3}
    - {fileID: 21300000, guid: d0e0270545537eb428644a0a136d234d, type: 3}
    - {fileID: 21300000, guid: 97c020ea02eee3846b10e12d107fb35c, type: 3}
    - {fileID: 21300000, guid: ac825bab681da17478f3bc8052e08c04, type: 3}
    - {fileID: 21300000, guid: 9d6f33c6fec1ba249b2ea48eabfcc086, type: 3}
    - {fileID: 21300000, guid: a1cf27baff62bab4ca8e556d68716e09, type: 3}
    - {fileID: 21300000, guid: 67d752cb45fccd74198f31481c860f9f, type: 3}
    - {fileID: 21300000, guid: ce191083a1269e241952543d7fd1ae26, type: 3}
    - {fileID: 21300000, guid: 478095f606494e541b615b7daab0ba6e, type: 3}
    - {fileID: 21300000, guid: c4a83e05e366e0840883dfe7dd01fd64, type: 3}
    - {fileID: 21300000, guid: 76d3fa3f8c0ca0340b4334882c815d73, type: 3}
    - {fileID: 21300000, guid: 1c24582c1517c304fb1c0b22d5703960, type: 3}
    - {fileID: 21300000, guid: a149201875c65ef46990cd42a296b61c, type: 3}
    - {fileID: 21300000, guid: f4c75e09bc715a94ab7682d36225a212, type: 3}
    - {fileID: 21300000, guid: dd623f0f79683644eb82df3faa2bc4ad, type: 3}
    - {fileID: 21300000, guid: 9d2d194e58b021449bcddabec084e15c, type: 3}
    - {fileID: 21300000, guid: 636d3311d99fe9041a38dbaf377e397b, type: 3}
    - {fileID: 21300000, guid: 49fd5ae859784ec41a2fabb00077f5f8, type: 3}
    - {fileID: 21300000, guid: b10fee54b62fe7a42905fe69d934fd2a, type: 3}
    - {fileID: 21300000, guid: dd77d21bcc52f9342a44d646ceeb57dc, type: 3}
    - {fileID: 21300000, guid: ad47b8f08a7952e4f8ccf532af742cf1, type: 3}
    - {fileID: 21300000, guid: 8962277e8770ee64188bf2def242f8c3, type: 3}
    - {fileID: 21300000, guid: 0806af230bf6a9d4eb27d6a9645bc127, type: 3}
    - {fileID: 21300000, guid: 0ec0f865c864b404caf7191ba2b8f232, type: 3}
    - {fileID: 21300000, guid: 624a3e5e9974f2b44b2d4120850e34ab, type: 3}
    - {fileID: 21300000, guid: cc1acd407e609e34db1a233e71556bf0, type: 3}
    - {fileID: 21300000, guid: 2f39490f7943d474f8e4c58126de31d0, type: 3}
    - {fileID: 21300000, guid: d4cfc1c19b520d943a50672428cb5efc, type: 3}
    - {fileID: 21300000, guid: ba06522707fc96344a4b11b18f5cc838, type: 3}
    - {fileID: 21300000, guid: cf1dd65c01d99764daa005980abc2ae7, type: 3}
    - {fileID: 21300000, guid: 36558f6f20ab4754eb9fc025d77c16f1, type: 3}
    - {fileID: 21300000, guid: 3e33e4ac9df2a834f8169c7ad6dd9e3c, type: 3}
    - {fileID: 21300000, guid: 024a1812961ee374dbdacb3b04dbc956, type: 3}
    - {fileID: 21300000, guid: 9808eb4b064f866429eea3414af7f87f, type: 3}
  m_AnimationClipSettings:
    serializedVersion: 2
    m_AdditiveReferencePoseClip: {fileID: 0}
    m_AdditiveReferencePoseTime: 0
    m_StartTime: 0
    m_StopTime: 16
    m_OrientationOffsetY: 0
    m_Level: 0
    m_CycleOffset: 0
    m_HasAdditiveReferencePose: 0
    m_LoopTime: 1
    m_LoopBlend: 0
    m_LoopBlendOrientation: 0
    m_LoopBlendPositionY: 0
    m_LoopBlendPositionXZ: 0
    m_KeepOriginalOrientation: 0
    m_KeepOriginalPositionY: 1
    m_KeepOriginalPositionXZ: 0
    m_HeightFromFeet: 0
    m_Mirror: 0
  m_EditorCurves: []
  m_EulerEditorCurves: []
  m_HasGenericRootTransform: 0
  m_HasMotionFloatCurves: 0
  m_Events: []
